{
  "notes": [
    {
      "title": "Note 1",
      "content": "Super Note 1st",
      "id": "2022-12-16T06:30:55.097Z"
    },
    {
      "title": "Title 102",
      "content": "MSO1",
      "id": "2022-12-16T06:31:17.193Z"
    }
  ]
}
